{
	"tileset"  :  "dungeon.png",
	"terrain"  :  [
		[29,  34,  34,  34,  34,  34,  34,  34,  34,  34,  34,  34,  34,  34,  34,  34,  34,  35,   1,   1,  33,  34,  28,  26,  26,  29,  34,  34,  28,  29,  34,  34,  34,  34,  34,  34,  28],
		[27,  42,  42,  42,  42,  42,  42,  42,  42,  42,  42,  42,  42,  42,  42,  42,  42,  43,   1,   1,  41,  42,  25,  26,  26,  27,  42,  42,  25,  27, 116, 117, 115,  44,  44,  44,  25],
		[27,  50,  50,  50,  50,  50,  50,  50,  50,  50,  50,  50,  50,  50,  50,  50,  50,  51,   1,   1,  49,  50,  25,  26,  26,  27,  50,  50,  25,  27, 124, 125, 126,  58,  58,  58,  25],
		[27,  1,    1,    1,  1,   1,   1,   1,   1,   1,   1,   1,   1,   1,   1,   1,   1,   1,   1,   1,   1,   1,  25,  26,  26,  27,   1,   1,  25,  27,  66,  66,  66,  66,  66,  66,  25],
		[27,  1,    1,    1,  1,   1,   1,   1,   1,   1,   1,   1,   1,   1,   1,   1,   1,   1,   1,   1,   1,   1,  33,  34,  34,  35,   1,   1,  25,  27,  66,  66,  66,  17,  18,  18,  20],
		[27,  1,    1,    1,  1,  17,  18,  18,  18,  18,  18,  19,   1,   1,   1,   1,   1,   1,   1,   1,   1,   1,  41,  55,  55,  43,   1,   1,  25,  27,  66,  66,  66,  25,  28,  34,  28],
		[27,  1,    1,    1,  1,  25,  26,  26,  26,  26,  26,  27,   1,   1,   1,   1,   1,   1,   1,   1,   1,   1,  49,  50,  50,  51,   1,   1,  25,  27,  66,  66,  66,  25,  27,  42,  25],
		[27,  1,    1,    1,  1,  33,  34,  34,  34,  34,  34,  35,   1,   1,   1,   1,   1,   1,   1,   1,   1,   1,   1,   1,   1,   1,   1,   1,  25,  27,  66,  66,  66,  25,  27,  50,  25],
		[27,  1,    1,    1,  1,  41,  42,  42,  42,  42,  42,  43,   1,   1,   1,   1,   1,   1,   1,   1,   1,   1,   1,   1,   1,   1,   1,   1,  25,  27,  66,  66,  66,  25,  27,   1,  25],
		[27,  1,    1,    1,  1,  49,  50,  50,  50,  50,  50,  51,   1,   1,   1,   1,   1,   1,   1,   1,   1,   1,   1,   1,   1,   1,   1,   1,  25,  21,  18,  18,  18,  20,  27,   1,  25],
		[27,  1,    1,    1,  1,   1,   1,   1,   1,   1,   1,   1,   1,   1,   1,   1,   1,   1,   1,   1,   1,   1,   1,   1,   1,   1,   1,   1,  33,  34,  34,  34,  34,  34,  35,   1,  25],
		[27,  1,    1,    1,  1,   1,   1,   1,   1,   1,   1,   1,   1,   1,   1,   1,   1,   1,   1,   1,   1,   1,   1,   1,   1,   1,   1,   1,  41,  42,  42,  42,  42,  42,  43,   1,  25],
		[27,  1,    1,    1,  1,   1,   1,   1,   1,   1,   1,   1,   1,  17,  18,  19,   1,   1,   1,   1,   1,   1,   1,   1,   1,   1,   1,   1,  49,  50,  50,  50,  50,  50,  51,   1,  25],
		[27,  1,    1,    1,  1,   1,   1,   1,   1,   1,   1,  17,  18,  20,  26,  21,  19,   1,   1,   1,   1,   1,   1,   1,   1,   1,   1,   1,   1,   1,   1,   1,   1,    1,  1,   1,  25],
		[27,  1,    1,    1,  1,  17,  18,  18,  18,  18,  18,  20,  26,  26,  26,  26,  27,   1,   1,   1,   1,  17,  18,  18,  18,  19,   1,   1,   1,   1,   1,   1,   1,    1,  1,   1,  25],
		[27,  1,    1,    1,  1,  25,  26,  26,  26,  26,  26,  26,  26,  26,  26,  26,  27,   1,   1,   1,   1,  25,  26,  26,  26,  27,   1,   1,   1,   1,   1,   1,   1,    1,  1,   1,  25],
		[21, 18,   18,   18, 18,  20,  26,  26,  26,  26,  26,  26,  26,  26,  26,  26,  21,  19,   1,   1,  17,  20,  26,  26,  26,  21,  18,  18,  18,  18,  18,  18,   18, 18,  18,  18,  20]
	]
}
